"data";"hora";"P";"TA_media";"TA_max";"TA_min";"UR_media";"UR_max";"UR_min";"TS_20_media";"TS_20_max";"TS_20_min";"TS_40_media";"TS_40_max";"TS_40_min";"TS_60_media";"TS_60_max";"TS_60_min";"US_20_media";"US_20_max";"US_20_min";"US_40_media";"US_40_max";"US_40_min";"US_60_media";"US_60_max";"US_60_min";"PA_media";"PA_max";"PA_min";"RG_media";"RG_max";"RG_min";"UF_media";"UF_max";"UF_min";"VNT_dir_media";"VNT_dir_max";"VNT_dir_min";"VNT_vel_media";"VNT_vel_max";"VNT_vel_min";"DC";"ETO"
01-02-17;;0.06;18.9720416666667;23.7;16.6;83.5187013888889;91.5;63.3;23.7177777777778;24.3;23.2;23.2868055555556;23.5;23.1;23.4031944444444;23.5;23.3;8.84364583333333;8.979;8.719;6.69979166666667;6.814;6.52;15.392125;15.498;15.246;901.0031875;903.4;898.2;157.890104166667;1241.084;0;0.0127314814814815;0.166666666666667;0;90.3958333333333;360;2;1.90216666666667;6.797;0;12.8955138888889;3.09187494229517
02-02-17;;1.09;19.6556736111111;25.1;17.8;84.8189305555556;93.8;56.1;23.8400694444444;24.4;23.3;23.1706944444444;23.3;23.1;23.2825;23.3;23.2;9.40107638888889;11.565;8.505;6.50416666666667;6.643;6.273;15.2773819444444;15.414;15.014;898.2763125;900.4;896.8;196.612048611111;1391.785;0;0.0636574074074074;0.166666666666667;0;216.145833333333;360;1;1.70177083333333;11.602;0;12.88625;3.65194152928649
03-02-17;;4.54;20.1028680555556;25.8;16.6;85.7093263888889;94.3;56.1;24.0156944444444;24.7;23.4;23.2632638888889;23.4;23.1;23.2809722222222;23.3;23.2;11.9791180555556;40.507;9.379;6.577125;6.912;6.397;16.1430416666667;24.582;14.993;898.824284722222;901;897.3;230.050118055556;1429.284;0;0.107638888888889;0.166666666666667;0;224.843971631206;358;2;1.54870212765957;7.5;0;12.8891527777778;3.95230842436812
04-02-17;;0;21.8107430555556;28.7;14.9;76.2296875;94.5;37.6;24.3174305555556;25.4;23.5;23.3884027777778;23.6;23.3;23.2978472222222;23.4;23.2;11.6442152777778;12.967;11.089;6.78877777777778;6.937;6.594;16.7825416666667;18.143;15.935;899.644479166667;901.1;897.9;321.314701388889;1189.195;0;0.0625;0.166666666666667;0;199.180555555556;360;5;1.52897916666667;7.797;0;12.8729375;5.40955721541699
05-02-17;;0;22.0790555555556;28;17.9;76.4725555555556;93.5;50.1;25.1502777777778;25.9;24.6;23.7320138888889;24;23.5;23.4546527777778;23.6;23.3;10.7666180555556;11.112;10.586;6.6345;6.741;6.495;15.6668055555556;16.018;15.267;900.068326388889;901.3;898.9;269.286833333333;1366.784;0;0.0138888888888889;0.166666666666667;0;213.472222222222;359;1;2.15965972222222;9.898;0;12.8716805555556;4.9868239997856
06-02-17;;0;20.5047777777778;26.4;16.1;71.5392569444444;93.6;26.7;25.353125;26.4;24.6;23.9480555555556;24.1;23.8;23.67125;23.8;23.5;10.3947569444444;10.609;10.241;6.5106875;6.667;6.323;15.1541736111111;15.498;14.675;899.754041666667;901;898.2;335.978402777778;1048.919;0;0.068287037037037;0.166666666666667;0;190.902777777778;357;14;1.80129861111111;7.5;0;12.8617986111111;5.58483031598563
07-02-17;;0;18.9062152777778;27;11.9;74.0407361111111;93.9;37.4;25.5139583333333;26.4;24.6;24.04;24.2;23.8;23.7886111111111;23.9;23.7;10.1168402777778;10.287;9.87;6.34299305555556;6.495;6.15;14.6717152777778;15.078;14.141;900.354326388889;902;899.1;338.046041666667;1307.195;0;0.0671296296296296;0.166666666666667;0;193.986111111111;360;7;1.67323611111111;8.703;0;12.8833680555556;5.41761022132515
08-02-17;;0;18.4478472222222;23.1;16.3;86.7712916666667;93.2;69.9;25.5602083333333;26.4;25;24.0958333333333;24.3;24;23.8777083333333;24;23.8;9.92188888888889;10.194;9.73;6.22625;6.323;6.125;14.3719305555556;14.59;14.055;902.437666666667;904.2;900.8;165.458527777778;1495.743;0;0;0.166666666666667;0;51.4444444444444;360;3;2.64156944444444;7.898;0.102;12.8625138888889;3.13659230044602
09-02-17;;0;19.6294375;23.8;16.8;82.7204236111111;94;62.1;24.9122916666667;25.5;24.4;23.9269444444444;24.1;23.7;23.8655555555556;24;23.7;9.70615277777778;9.939;9.543;6.17354861111111;6.298;6.05;14.1683333333333;14.483;13.774;903.160256944444;904.7;901.2;198.321451388889;1402.835;0;0.0300925925925926;0.166666666666667;0;63.2916666666667;360;1;2.54838194444444;7.797;0.102;12.8797430555556;3.59180009975544
10-02-17;;0;19.2550208333333;21.7;17.3;79.6175625;87.5;65.3;24.6138194444444;25.2;24.2;23.7909027777778;24;23.6;23.7713194444444;23.8;23.6;9.49306944444444;9.683;9.379;6.06752777777778;6.174;5.926;13.9056597222222;14.205;13.557;902.622638888889;904.2;901.2;165.445840277778;1271.009;0;0;0;0;51.9236111111111;358;4;2.66716666666667;8.797;0;12.9033263888889;3.17085232460067
11-02-17;;2.1;18.9400277777778;22.9;15.2;84.5878680555556;92.7;69.5;24.06;24.6;23.5;23.5064583333333;23.7;23.3;23.6176388888889;23.7;23.4;9.50418055555556;11.339;9.05;5.98668055555556;6.075;5.877;13.6818125;13.99;13.296;900.553604166667;902.5;898.5;146.212680555556;1404.619;0;0.0347222222222222;0.166666666666667;0;101.777777777778;360;2;1.94160416666667;7.898;0;12.8870625;2.71460396135012
12-02-17;;3.18;19.9459930555556;24.9;17.9;86.7129375;91.8;67.4;23.8097222222222;24.2;23.3;23.288125;23.5;23.2;23.4234722222222;23.5;23.3;11.7335069444444;16.614;9.73;6.02024305555556;6.15;5.926;14.6634236111111;20.793;13.623;898.625513888889;900.2;897;166.289986111111;1188.039;0;0.0775462962962963;0.166666666666667;0;247.020833333333;359;3;2.29986805555556;9.297;0;12.8591736111111;3.28960515709686
13-02-17;;1.43;20.0527708333333;24.5;18;86.1855763888889;92.6;65.9;23.6848611111111;24.2;23.3;23.2522916666667;23.4;23.1;23.2984027777778;23.4;23.2;15.3113888888889;17.163;12.989;6.16800694444444;6.224;6.1;15.7866944444444;17.284;15.056;899.828270833333;902.4;898.4;135.792069444444;926.28;0;0.0844907407407407;0.166666666666667;0;191.1875;360;2;2.45513194444444;8.203;0.102;12.8611944444444;2.91744325690033
14-02-17;;2.15;20.5317013888889;22.9;18.8;87.3932430555556;94.3;77.1;23.4834027777778;23.9;23.2;23.1558333333333;23.3;23;23.2330555555556;23.3;23.1;14.5943055555556;17.505;12.126;6.24621527777778;6.347;6.15;14.9730208333333;15.12;14.824;904.2081875;907.6;901.5;103.423673611111;645.077;0;0.0590277777777778;0.166666666666667;0;158.472222222222;359;1;1.94509722222222;8.898;0;12.8615277777778;2.20097102943925
15-02-17;;0.01;22.7020277777778;28.7;18.2;76.0249652777778;94.8;40.5;23.5718055555556;24.6;23.1;23.0725;23.2;23;23.1535416666667;23.2;23;11.8985347222222;12.615;11.497;6.26433333333333;6.397;6.125;14.4530763888889;14.93;13.774;907.3956875;909.1;905.7;291.665;1427.882;0;0.0787037037037037;0.166666666666667;0;200.5625;358;1;1.71215277777778;8.297;0;12.8527013888889;5.23701809517991
16-02-17;;0.01;23.1473472222222;29.8;17.2;75.1569930555556;95.1;31.4;24.3433333333333;25.2;23.8;23.3475694444444;23.6;23.1;23.2075;23.3;23.1;11.19875;11.52;10.975;6.21630555555556;6.347;6.075;13.8040347222222;14.205;13.252;905.592847222222;908.1;902.4;292.590951388889;1268.496;0;0.0590277777777778;0.166666666666667;0;210.597222222222;359;4;1.29671527777778;7.602;0;12.8603055555556;5.20945169346869
17-02-17;;4.38;21.0851571428571;29.2;17.7;82.7652642857143;94.4;41;24.8284027777778;25.2;24.4;23.6668055555556;23.8;23.5;23.40375;23.6;23.2;11.6644097222222;15.225;10.563;6.21533333333333;6.298;6.05;14.7493541666667;24.463;13.055;903.141221428571;904.3;901.9;206.677708333333;1370.816;0;0.105324074074074;0.166666666666667;0;214.944444444444;356;6;1.4555;13.297;0;12.8794305555556;4.1029543640676
18-02-17;;0.02;20.9648581560284;29.3;14.8;79.0087375886525;94.6;44.2;24.3579166666667;24.9;23.7;23.6613194444444;23.9;23.5;23.5288194444444;23.6;23.4;11.9546111111111;12.703;11.452;6.26060416666667;6.372;6.15;15.0407013888889;16.245;14.033;903.124177304965;905.6;901.7;273.370472222222;1205.953;0;0.100694444444444;0.166666666666667;0;203.993055555556;360;6;1.53724305555556;8.602;0;12.8348402777778;4.87642571364459
19-02-17;;0.1;21.5432836879433;29.9;16.2;80.1646666666667;94.4;40.9;24.5690972222222;25.2;24;23.6936111111111;23.8;23.6;23.5660416666667;23.6;23.4;11.1833611111111;11.52;10.975;6.21741666666667;6.323;6.075;13.8708958333333;14.355;13.209;905.215411347518;907.2;903.8;269.499597222222;1183.143;0;0.0798611111111111;0.166666666666667;0;205.388888888889;360;1;1.45248611111111;12.398;0;12.8449097222222;4.89827581695269
20-02-17;;0;22.7553165467626;29.4;18.1;71.269726618705;94;35;24.8432361111111;25.6;24.3;23.8411805555556;24;23.7;23.6654861111111;23.7;23.5;10.8392083333333;10.998;10.632;6.16958333333333;6.273;6.026;13.3913888888889;13.839;12.879;906.560050359712;908.2;904.8;312.872763888889;1033.294;0;0.0335648148148148;0.166666666666667;0;96.1597222222222;360;5;2.07652777777778;7.602;0;12.8475972222222;5.81135283378877
21-02-17;;0;21.7508928571429;27.6;17.4;73.9019142857143;89.6;47;25.20125;25.8;24.6;24.0518055555556;24.2;23.9;23.7738194444444;23.9;23.7;10.5799444444444;10.769;10.448;6.08098611111111;6.199;5.926;12.9354652777778;13.405;12.371;906.117814285714;907.7;904.1;318.098493055556;1139.373;0;0.0115740740740741;0.166666666666667;0;116.284722222222;360;1;2.36201388888889;8;0;12.8737638888889;5.61274100386578
22-02-17;;0;22.0503971631206;28.9;17.9;70.705170212766;89.9;29.7;25.4113888888889;26;24.9;24.2422916666667;24.4;24.1;23.8868055555556;24;23.8;10.3465486111111;10.471;10.148;5.98332638888889;6.125;5.827;12.5215902777778;13.033;11.924;903.933354609929;905.8;901.2;298.938166666667;1157.824;0;0.00810185185185185;0.166666666666667;0;164.458333333333;360;4;1.73934722222222;6.297;0;12.8576666666667;5.51314503106637
23-02-17;;3.06;18.5989432624113;22.6;16.3;88.214304964539;93.8;63.4;25.1072222222222;26;24.4;24.2827083333333;24.4;24;24.0019444444444;24.2;23.9;13.1118055555556;37.1;9.986;6.07161111111111;6.372;5.877;14.6184166666667;21.016;12.259;902.782333333333;904.2;901.4;76.5754791666667;1297.764;0;0.123842592592593;0.166666666666667;0;200.854166666667;359;2;1.32506944444444;11.102;0;12.8332361111111;1.82164899997791
24-02-17;;0.24;19.7184375;26.3;14.3;79.7631805555556;94.2;49.4;23.8659722222222;24.5;23.3;23.73875;24.1;23.5;23.8509722222222;24;23.7;12.4634583333333;13.405;11.722;6.39899305555556;6.495;6.298;15.1233333333333;16.245;14.098;901.229770833333;902.7;899.2;277.957395833333;1264.84;0;0.068287037037037;0.166666666666667;0;200.5625;357;4;1.44488194444444;7.602;0;12.8673263888889;4.58087282408496
25-02-17;;1.54;20.3987708333333;26.4;16.5;83.0007430555556;94.4;53.3;24.2420833333333;24.7;23.8;23.5845833333333;23.7;23.5;23.64875;23.7;23.6;14.2878055555556;42.095;11.407;6.63851388888889;9.893;6.323;14.7591875;22.258;13.427;900.462326388889;902.1;898.4;224.6685625;1271.703;0;0.0949074074074074;0.166666666666667;0;186.138888888889;355;2;1.69219444444444;10.102;0;12.8671041666667;4.01313912986632
26-02-17;;0;20.6292569444444;26.1;17.7;80.7136319444444;93.1;56.9;24.3602083333333;24.7;24;23.6725;23.8;23.6;23.6314583333333;23.7;23.6;13.4540277777778;21.514;12.259;9.59617361111111;10.055;9.074;16.3540138888889;18.241;15.393;901.783847222222;903.1;900.7;198.160097222222;1323.314;0;0.0555555555555556;0.166666666666667;0;116.118055555556;355;4;1.73355555555556;7;0;12.8522986111111;3.79524653609695
27-02-17;;0;20.0774236111111;26.3;14;79.3986319444444;94.1;51.6;24.1910416666667;24.7;23.7;23.6390277777778;23.8;23.5;23.613125;23.7;23.5;11.9294513888889;12.259;11.587;8.818375;9.168;8.433;15.1468680555556;15.539;14.611;901.094722222222;903;898.3;215.629555555556;1309.771;0;0.0462962962962963;0.166666666666667;0;185.861111111111;354;7;1.35936805555556;7.703;0;12.861875;3.78968675597107
28-02-17;;0.27;21.9358055555556;28;17.9;75.4278819444445;92.8;45.3;24.2309722222222;24.8;23.8;23.5390277777778;23.7;23.4;23.5640972222222;23.6;23.5;11.3802708333333;11.61;11.089;8.2698125;8.529;7.955;14.5;14.951;13.904;897.935576388889;900.1;894.6;280.337701388889;1272.689;0;0.0277777777777778;0.166666666666667;0;237.715277777778;360;4;2.4179375;9.602;0;12.8494930555556;5.23004811599124
